<svg width="58" height="70" viewBox="0 0 58 70" fill="none" xmlns="http://www.w3.org/2000/svg">
    <path d="M31.8949 18.3928H22.2373" stroke="#BCC6CA" stroke-width="2" stroke-linecap="round" stroke-linejoin="round"/>
    <path d="M57.0001 18.3928H47.3425" stroke="#BCC6CA" stroke-width="2" stroke-linecap="round" stroke-linejoin="round"/>
    <path d="M39.63 26.1052V35.7628" stroke="#BCC6CA" stroke-width="2" stroke-linecap="round" stroke-linejoin="round"/>
    <path d="M39.63 1V10.6576" stroke="#BCC6CA" stroke-width="2" stroke-linecap="round" stroke-linejoin="round"/>
    <path d="M6.97008 58.2083H1" stroke="#BCC6CA" stroke-width="2" stroke-linecap="round" stroke-linejoin="round"/>
    <path d="M22.4897 58.2083H16.5196" stroke="#BCC6CA" stroke-width="2" stroke-linecap="round" stroke-linejoin="round"/>
    <path d="M11.7515 62.9758V68.9459" stroke="#BCC6CA" stroke-width="2" stroke-linecap="round" stroke-linejoin="round"/>
    <path d="M11.7515 47.4565V53.4266" stroke="#BCC6CA" stroke-width="2" stroke-linecap="round" stroke-linejoin="round"/>
</svg>
