<svg width="490" height="451" viewBox="0 0 490 451" fill="none" xmlns="http://www.w3.org/2000/svg">
    <path d="M424.913 172.962C470.912 194.632 491.492 249.672 468.597 295.069C467.81 296.619 466.977 298.191 466.12 299.695C424.751 375.757 335.115 454.271 222.26 450.895C109.405 447.518 11.8057 331.84 0.832694 205.2C-10.1403 78.5603 89.5658 1.68826 168.182 0.0231663C246.799 -1.64193 300.136 86.9783 334.676 114.846C344.051 122.385 388.73 155.918 424.913 172.962Z" fill="#D9D9F2" fill-opacity="0.2"/>
    <path d="M486.805 277.667C486.805 277.667 478.851 277.236 475.658 268.022C472.466 258.808 478.152 255.085 480.35 256.666C484.157 259.415 479.315 268.962 466.66 263.543C454.254 258.224 458.368 246.92 461.323 247.137C466.742 247.539 464.814 260.247 448.596 255.248C444.965 254.032 441.906 251.526 440 248.204" stroke="#BCC6CA" stroke-width="2" stroke-linecap="round" stroke-linejoin="round"/>
    <path d="M231 70.6201C233.75 67.9801 237.05 71.4001 239.8 68.7601C242.55 66.1201 239.24 62.6801 241.98 60.0501C244.72 57.4201 248.04 60.8301 250.78 58.1801C253.52 55.5301 250.22 52.1101 252.97 49.4701C255.72 46.8301 259.02 50.2501 261.77 47.6001C264.52 44.9501 261.22 41.5201 263.97 38.8701C266.72 36.2201 270.02 39.6501 272.77 37.0001" stroke="#BCC6CA" stroke-width="2" stroke-linecap="round" stroke-linejoin="round"/>
    <path d="M141.276 389.104H134" stroke="#BCC6CA" stroke-width="2" stroke-linecap="round" stroke-linejoin="round"/>
    <path d="M160.19 389.104H152.914" stroke="#BCC6CA" stroke-width="2" stroke-linecap="round" stroke-linejoin="round"/>
    <path d="M147.104 394.914V402.19" stroke="#BCC6CA" stroke-width="2" stroke-linecap="round" stroke-linejoin="round"/>
    <path d="M147.104 376V383.276" stroke="#BCC6CA" stroke-width="2" stroke-linecap="round" stroke-linejoin="round"/>
    <path d="M99.04 56L97.93 67.94L88 61.66L99.04 56Z" stroke="#BCC6CA" stroke-width="2" stroke-linecap="round" stroke-linejoin="round"/>
</svg>
